^D:\OPENCV_PROJECTS\OPENCV_OPENGL_CAPTIVE\OPENCV_OPENGL_CAPTIVE\DEBUG\CSVREADER.OBJ|D:\OPENCV_PROJECTS\OPENCV_OPENGL_CAPTIVE\OPENCV_OPENGL_CAPTIVE\DEBUG\CSVWRITER.OBJ|D:\OPENCV_PROJECTS\OPENCV_OPENGL_CAPTIVE\OPENCV_OPENGL_CAPTIVE\DEBUG\MAIN.OBJ|D:\OPENCV_PROJECTS\OPENCV_OPENGL_CAPTIVE\OPENCV_OPENGL_CAPTIVE\DEBUG\MESH.OBJ|D:\OPENCV_PROJECTS\OPENCV_OPENGL_CAPTIVE\OPENCV_OPENGL_CAPTIVE\DEBUG\MODEL.OBJ|D:\OPENCV_PROJECTS\OPENCV_OPENGL_CAPTIVE\OPENCV_OPENGL_CAPTIVE\DEBUG\MODELREGISTRATION.OBJ|D:\OPENCV_PROJECTS\OPENCV_OPENGL_CAPTIVE\OPENCV_OPENGL_CAPTIVE\DEBUG\MODEL_OBJ.OBJ|D:\OPENCV_PROJECTS\OPENCV_OPENGL_CAPTIVE\OPENCV_OPENGL_CAPTIVE\DEBUG\PNPPROBLEM.OBJ|D:\OPENCV_PROJECTS\OPENCV_OPENGL_CAPTIVE\OPENCV_OPENGL_CAPTIVE\DEBUG\ROBUSTMATCHER.OBJ|D:\OPENCV_PROJECTS\OPENCV_OPENGL_CAPTIVE\OPENCV_OPENGL_CAPTIVE\DEBUG\UTILS.OBJ
D:\OPENCV_PROJECTS\OPENCV_OPENGL_CAPTIVE\DEBUG\OPENCV_OPENGL_CAPTIVE.ILK
D:\OPENCV_PROJECTS\OPENCV_OPENGL_CAPTIVE\DEBUG\OPENCV_OPENGL_CAPTIVE.EXE
D:\OPENCV_PROJECTS\OPENCV_OPENGL_CAPTIVE\DEBUG\OPENCV_OPENGL_CAPTIVE.PDB
